Project 1
…
## # A tibble: 1 x 10
##    Year County Region_Number Region `Child Populati… `% of Children …
##   <dbl> <chr>          <int> <chr>             <dbl>            <dbl>
## 1  2020 Burnet             7 Austin            10343               21
## # … with 4 more variables: `Total Population` <dbl>, `New Cases` <dbl>,
## #   percent_of_children <dbl>, percent_covid_cases <dbl>

joined_data %>% select(County, `New Cases`) %>% arrange(desc(`New Cases`))

## # A tibble: 254 x 2
##    County    `New Cases`
##    <chr>           <dbl>
##  1 Harris         295043
##  2 Dallas         233569
##  3 Tarrant        204809
##  4 Bexar          150225
##  5 El Paso        113017
##  6 Travis          75617
##  7 Collin          68279
##  8 Hidalgo         65011
##  9 Fort Bend       49937
## 10 Denton          48806
## # … with 244 more rows

joined_data %>% group_by(Region) %>% arrange(desc(Region_Number))

## # A tibble: 254 x 10
## # Groups:   Region [11]
##     Year County Region_Number Region `Child Populati… `% of Children …
##    <dbl> <chr>          <int> <chr>             <dbl>            <dbl>
##  1  2020 Arans…            11 Edinb…             5226               19
##  2  2020 Bee               11 Edinb…             7568               22
##  3  2020 Brooks            11 Edinb…             1836               26
##  4  2020 Camer…            11 Edinb…           124912               29
##  5  2020 Duval             11 Edinb…             3077               26
##  6  2020 Hidal…            11 Edinb…           258163               30
##  7  2020 Jim H…            11 Edinb…             1477               29
##  8  2020 Jim W…            11 Edinb…            12078               28
##  9  2020 Kenedy            11 Edinb…              101               21
## 10  2020 Klebe…            11 Edinb…             6964               22
## # … with 244 more rows, and 4 more variables: `Total Population` <dbl>, `New
## #   Cases` <dbl>, percent_of_children <dbl>, percent_covid_cases <dbl>
…
joined_data %>% group_by(Region, County) %>% summarize(mean(`New Cases`))

## # A tibble: 254 x 3
## # Groups:   Region [11]
##    Region  County   `mean(\`New Cases\`)`
##    <chr>   <chr>                    <dbl>
##  1 Abilene Archer                     545
##  2 Abilene Baylor                     111
##  3 Abilene Brown                     1917
##  4 Abilene Callahan                   484
##  5 Abilene Clay                       721
##  6 Abilene Coleman                    353
##  7 Abilene Comanche                   926
##  8 Abilene Cottle                     120
##  9 Abilene Eastland                   751
## 10 Abilene Fisher                     290
## # … with 244 more rows
…
Visualizing

cormat_joined <- joined_data %>% select(-1, -3, -6) %>% select_if(is.numeric) %>% 
    cor(use = "pair")

tidycor_joined <- cormat_joined %>% as.data.frame %>% rownames_to_column("var1") %>% 
    pivot_longer(-1, names_to = "var2", values_to = "correlation")
tidycor_joined

## # A tibble: 25 x 3
##    var1             var2                correlation
##    <chr>            <chr>                     <dbl>
##  1 Child Population Child Population         1     
##  2 Child Population Total Population         0.999 
##  3 Child Population New Cases                0.972 
##  4 Child Population percent_of_children      0.169 
##  5 Child Population percent_covid_cases      0.0844
##  6 Total Population Child Population         0.999 
##  7 Total Population Total Population         1     
##  8 Total Population New Cases                0.972 
##  9 Total Population percent_of_children      0.160 
## 10 Total Population percent_covid_cases      0.0818
## # … with 15 more rows
…
