Project 2
…
  } 
  else if (heart_dat$cp[i] == 2) 
         {
    temp[i] = "non-typical angina"
  } 
  else if (heart_dat$cp[i] == 3) 
         {
    temp[i] = "asymptomatic"
  }
}
heart_dat <- heart_dat %>% mutate(chest_pain = t(temp[1,]))
heart_dat <- heart_dat %>% select(-c("cp", "exng", "oldpeak", "caa", "fbs", "slp", "thall"))
heart_dat

## # A tibble: 303 x 8
## age sex trtbps chol restecg thalachh output
chest_pain[,1]
## <dbl> <dbl> <dbl> <dbl> <dbl> <dbl> <dbl> <chr>
## 1 63 1 145 233 0 150 1 asymptomatic
## 2 37 1 130 250 1 187 1 non-typical angina
## 3 41 0 130 204 0 172 1 atypical angina
## 4 56 1 120 236 1 178 1 atypical angina
## 5 57 0 120 354 1 163 1 typical angina
## 6 57 1 140 192 1 148 1 typical angina
## 7 56 0 140 294 0 153 1 atypical angina
## 8 44 1 120 263 1 173 1 atypical angina
## 9 52 1 172 199 1 162 1 non-typical angina
## 10 57 1 150 168 1 174 1 non-typical angina
## # … with 293 more rows
…
For the randomization test, I looked at the relationship between maximum heart rate and age. Since both of these variables are numeric, I tested the correlation between them. The null hypothesis is that there is no correlation between maximum heart rate and age. The alternative hypothesis is that there is a correlation between maximum heart rate and age. To start the randomization test, I scrambled the relationship between maximum heart rate and age. This was done in a for loop 5000 times. After scrambling the data 5000 times, the average correlation between age and maximum heart rate became 0. This is what the data would look like if the null hypothesis was true. Then, I looked at what the correlation is using the original data. The correlation using the real data was -0.3985219. A negative correlation indicates that maximum heart rate declines as age increases.
I formed 5000 random relationships between age and maximum heart rate. If the real relationship between age and maximum heart rate is not a random relationship, then the number of times the correlation of the random relationships would be more negative than the real relationship would be less than 5%. Because I observed less than 5%, I can reject the null hypothesis that there is no relationship between maximum heart rate and age.
I computed a histogram of the null hypothesis distribution and confirmed that getting a correlation of -0.3985219 is highly unlikely, like I concluded before.

Linear Regression Model

heart_dat1 = heart_dat
heart_dat1$sex <- as.character(heart_dat$sex) #make sex a character variable to make graph nicer.
heart_dat = heart_dat1
heart_dat

## # A tibble: 303 x 8
## age sex trtbps chol restecg thalachh output
chest_pain[,1]
## <dbl> <chr> <dbl> <dbl> <dbl> <dbl> <dbl> <chr>
## 1 63 1 145 233 0 150 1 asymptomatic
## 2 37 1 130 250 1 187 1 non-typical angina
## 3 41 0 130 204 0 172 1 atypical angina
## 4 56 1 120 236 1 178 1 atypical angina
## 5 57 0 120 354 1 163 1 typical angina
## 6 57 1 140 192 1 148 1 typical angina
## 7 56 0 140 294 0 153 1 atypical angina
## 8 44 1 120 263 1 173 1 atypical angina
## 9 52 1 172 199 1 162 1 non-typical angina
## 10 57 1 150 168 1 174 1 non-typical angina
## # … with 293 more rows
…
